{
    "token" : "R1HN0OKTW05PKWL4C1GCWFBBKVQJ20T1MVFUJQN0JDB3LLAE&",
    "client_id":"ZL32FZSA0LN1S5ZGXUYV5EC0GJDVX35RNWRKOMGKFT0VW5NH",
    "client_secret":"FUDWOGPRZ5YBS4OF3ZBYB3JSA1YE2E31J1PZPRRQAFL0IU0J",
    "ll": "10.8231,106.6297"
}
